Nb of jobs, Nb of Machines, Time seed, Machine seed, Upper bound, Lower bound
        20        20 1035939303  773961798      1663      1217
Times
 64 57 81 98 59 87 93 62 20 14 85 45 47  9 94  9 15 66  1 94
 39 96 88 83 77 58 83  3 78 68 64 97 33 25 47 44  7 60 42 91
 96 66 88 60 22 92 62 14 89 39 94 66 10 53 26 15 65 82 10 27
 93 92 96 70 83 74 31 88 51 57 78  8  7 91 79 18 51 18 99 33
  4 82 40 86 50 54 21  6 54 68 82 20 39 35 68 73 23 30 30 53
 94 58 93 32 91 30 56 27 92  9 78 23 21 60 36 29 95 99 79 76
 93 42 52 42 96 29 61 88 70 16 31 65 83 78 26 50 87 62 14 30
 18 75 20  4 91 68 19 54 85 73 43 24 37 87 66 32 52  9 49 61
 35 99 62  6 62  7 80  3 57  7 85 30 96 91 13 87 82 83 78 56
 85  8 66 88 15  5 59 30 60 41 17 66 89 78 88 69 45 82  6 13
 90 27  1  8 91 80 89 49 32 28 90 93  6 35 73 47 43 75  8 51
  3 84 34 28 60 69 45 67 58 87 65 62 97 20 31 33 33 77 50 80
 48 90 75 96 44 28 21 51 75 17 89 59 56 63 18 17 30 16  7 35
 57 16 42 34 37 26 68 73  5  8 12 87 83 20 97 20 85 61  9 36
 63 11 45 10 33  5 41 47  9 74 33 35 78 12 22 44  8 97 10 86
 33 60 21 96 69 34 94 15 23 84 16 55 50  5 59 35 12 57 11 51
 72 42  4 62 15 27 16 34  8 50 85 12 48  5 25 40 81 46 67 25
 83 92 25 40 21  4 43 38 60 24  3 28 86 68 55 91 97 19 73 20
 28 81 46 98 46 29 96 12 71 32 64 39 16 97 99 49 75  7 79 80
 71  9 11  8  4 47 93 82  6 49  7 24 92 13 86 80 34 75 35 29
Machines
  7  2 16  3 20 14 17 19  4 13 15  6 11  8  9 10  1 18 12  5
  9  7 11 10 20  2  1 18  3 12  8 14 19 16  5 15  6  4 17 13
  2  4  5 13  1 15  8 20 11 12  6 19 14 16 17  9 10  3 18  7
 19 16 11  2 20 10  3 13  5  1 14 17 15 12  4  6  9 18  7  8
  3 11 13 16  8 15 18  6  9  2 14  1  4 17  5 10 12 19  7 20
  1 17 11 10 18  9  6  4 20 12 16  3 15  5 13 14  2  7  8 19
 12  1  2 20 10 11  9 18 19 17  5  4 13  8  7 16  6 15  3 14
 17  4  9 11 19  8  2 15 20  3 13  7  6 12 18  5 14 10 16  1
 18 19 16 12 11 13 15  4  2  1 17 10  7 20  8  9  5  3 14  6
 10  6  4  3 12  5 17 15  8 14  2 19  9 16 13  7 18 20  1 11
  6 10 19  1  4 17  7  2  3 12 16 20  8  9  5 11 13 18 15 14
 12  6 10  5  4 16 18  8 19 20 14  2  7 13 11  1 15 17  3  9
 16  4  5  8 19 14 20 10  3 11 12 15  7 18 13 17  1  9  2  6
 14 11 17  9  5  2  3 20 15 13 19 18  1  6 10  8  7  4 12 16
  1  6  5 20 15  9  2 17 16 11 13  3 12  7  8 19 14  4 18 10
 12 17 18 11 16 13  1  6  5  9  4  8 14  2 19 10 20  7 15  3
  8  9  6 14 20 17 12  2 15 19 11  7  4 16  5  3  1 10 18 13
 18 11 16  6  5 15  9 19 14  7 20  4  2 10 12  3 13 17  8  1
 15  4 17  1 11 19  5  2  6 20 13 10 12 16 14  8 18  9  7  3
 14 11  4 15  2  9  1 17 20  5  7 10 12  6  3  8 18 13 16 19
Nb of jobs, Nb of Machines, Time seed, Machine seed, Upper bound, Lower bound
        20        20    5997802 1872541150      1626      1314
Times
 94 61 12 68 40 84 30 16 34 92 53 55 61 67 30 88 12 20 16 51
 22 75 29 87 47 48 21 46 77 35 10 92  9 75 40 89 86 33  2  1
 32  8 99 14 41 53 97 19 39 20 91 54 97 79 21 22 93 67 17 84
 13 43 97 41  4 35  6 93 32 35  2 54 77  9 97 10 45 81 76 37
 26 70 33 58 38 77 86 53 47 20 71 69 95  4 23 89 87 20 67 65
 86 73 93 26 98 37 67 87 33  6 68 16 12  5 33 87 96 46 87 89
  3 34  2 96 67 37 30 50 84 27 37 89 92 68 20 80 76 74 11 38
 60 97 42 73 28 69 90 44 27 54 24 36 82 13 33 80 44 99 80 82
 79 62 31 27 72 12  4  4 11 35 83 57 19 80 20 16 96 24 64 93
 61 86 46 58  2 19 46 50 79 84 14 16 76 89 85 86 60 44 28 63
 10 44 26 61 92 30 19 27 22 86 22 62 75 10 78  3 97 88 10 46
 21 51  3 94 82 26 83 57 86 61 80 81 25  5 75 38 16 20 50 52
 17 86  6 49 74 82 86 26 80 46 94  7 27 26 97 14 27  3 12 82
 46 21  1 99 83 22  2 42 61 79 17 67 61 72 49 91 38 28 34 14
 50 49 40 63  5 80 70  3 62 43 58 39 52 68 71 86 61 53  1 97
 53 51 25 16 91 93 37 61 41 49 20 24 58  8 72 30 15 86 31 40
 72 77 34 45 83 85 19  5 77 75 61 89 77 44 32 86 40 23 35 57
 33 16 60 70 67 37 42 24 75  1 22 32 21  3 69 77 53 64 34 15
 58 55 68  5 20 88 91 79 55 16 53 84  1 66 14 83  1 96 54 30
 80 81  9 49 32 19 92 65 88 64  4 68 79 21 84 92 66 51 83 96
Machines
  4  3 20 12 11 14 17 16  2  1 13 18 19 10  6  8 15  5  9  7
 15 13  5 18  8  3 11 16  9 10  4  7 17 14 12  2  1  6 20 19
 19 18  1 14  8  2 12 20  6  4  3 17 16  5  9 15 10 13 11  7
 18 11  9 13  6 17 15 12  7  2 10  5 20  1 19 16  4  3 14  8
  9 13  2 11 14 16  6 18 10  8 19  4  5  1  3 15 20 12 17  7
  7  1 10 17 15 19 18 11  3 14 12  8 20  2  9  4  5 16 13  6
 13  2  7 15 12 16  4 11 10 20  6 18  3  5  9 19  8  1 14 17
  6 13 20  2  9 14 19 10 11  3 18  4 16  7 17  8  1  5 12 15
  3  9  4 11 17 16  1 18  8 14  6 15 13 10 20  7 19 12  5  2
 18  3  8 20 12 17 14 11 16  2  6  7  9 10  4 13 19 15  1  5
  8 13  9 12 17 16  5  4 15 10 20  3 14 18  7  2 11 19  6  1
  5 18 12 17 16 19 15 20  7  8  6 11 14  1  4 10  3  9  2 13
  9 17 13  3  6 16 11 18  8 14  5  2  1  4 20 10 19 15 12  7
  2  9 19 12 18 10 11 17 20  6 13  5  4  7  8  3 15  1 14 16
 14  8  5  1 20  3 15  4 12 18 17 11  2 10 13  7 16  9  6 19
 16  1 19 17  9  5  6 15  8 18  2  4 11 20  7  3 14 13 10 12
  4 12  3 10 16  2 11  8 20  6  9 14 18  7  1 17 15 13 19  5
 18  7 12  6 17  5 13 10 19  1 11 15  8  4 16  2  9 20  3 14
  6  7  9 13  3 10 17 14 19  2  8 18  1 16 20  4 12  5 15 11
  4 16 11  5 19  2 17 10 13  8 12  1  3 20 14 15 18  6  7  9
Nb of jobs, Nb of Machines, Time seed, Machine seed, Upper bound, Lower bound
        20        20 1357503601  722225039      1574      1248
Times
 33  8 81 68 28 91 91 74  7  7 19 50 65 53  9 90 69 50 58 13
 69 10 58 10 91  5 37  9 93 94 46 55 99 28 95 94  4 51 59 10
 79 70 35 82 35 84 34 87 91 69 12 31 94 65 13 16 39 46  4 74
 50 40 81 47 96 67 94 53 22 17 23 24 66 15 56 84 79 25 13 72
  7 81 62 50 91 77 32 10 78 78 21 78 21 10 88 23 92 34 88 48
 66 71 55 25 43 24 87 59 90 63 90 22  6 50  9 18 19 52 83 66
 66 39 10 80 55 38 29 41 63 32 91 27 72 71 61 35 17 26 42 64
 11 33 84 12 18 57 43 24 77 85 62 49  5 46 93 85 92 30 64 77
 38 30 31 25 90 79  3 52 87 30 87  4 57 43 55 21 30  1 72 75
  9 49 91 39 40 59 20 27 67 22  2 47 91 11 70 97 78 69 17 40
 57 32 67 26 23 55 14 77 77 82 34  1 64 90 37 47 27 54  3 94
 25 33 12 27 32 49 35  5 73  3 28 54 45 32 53 99 85 86 13 99
 64 77 82 32 75 32 68 16 63 81 31 58 73 12 25 64 98 72 47 84
 17 98 99 39 73 82  1 43 48 62 44 50 44 72 89 45 44 21 79 60
 87 63  8 20 88 88 77 88 46 30 44 42 84 41 74 52 25 87 43 77
 39 93 44 23 75  7 60 45 71 49  3 68 56 20 35  8 79 21 48 43
 75 92 83 48  7 99 43 94  6 34 48 60 33 16 34 99 83 11 80 43
 97 80  2 37 31 37 58 11 24 84 10 30 97 89 47 37 73 11 90 54
  1 97 68  8  7 72 38 50 42 32 54 94 31 52 76 20 29 56 36 16
 29 31 49 91  7 37 86 75 21 46 47  1 16 29 47 81 52 44 95 79
Machines
  8  5  1 11 18 19 17 16  4 12  6  7 10 20 13  9 15 14  3  2
  4 20 18 15 12  2  3  8 17 14 10  6  9  1 19 11  7  5 16 13
 16  1  5  9  3 15 19 13  8  6  7 17 18 12 11 14 20 10  2  4
 18  8 13 10  1 14  2 15  3 17 11 19  9  5  7 16 20  6  4 12
 20  7  6 16 14  5  3 19  4 17 12 15  2 18  9 10  8 11 13  1
 15  1  6 19 12  3 13  8  7 14  5 20 16  2  4 11 17 18 10  9
  9 15 19  8  7  4  2 12 18 11 16 20  5  3 17 14 10  1  6 13
 18 19 14 16  6  9 20 17  1  3  8  4  2 10 12 15  7 11  5 13
 12  1 10 19  2 20 17 13  7 11  8 15 16  9  5 14 18  6  3  4
  1  9 19  5 14 15  2  8 20 16 17 11  4  7 12  6 13 18 10  3
 17  7  4  9 11  2 20 18  1 14  3  5  6 13 10 16  8 19 12 15
  5  8 17 11 10  1 19  2 20  9 15  3 14 12  7  6 13 16  4 18
 13 14  3 19 10  9  1 11  8  4 16 18  7 17 15  6  5 12  2 20
 18 19  6  9  3  5 10 16  8 11  4 13 14 17 15  2  1  7 12 20
 13  8 11  3 19  5 20 15 14  4  7  2  6 17 16  9 10  1 12 18
  1  4 16  2 17 14 15  8 19 11  6 12  7 20  3 18  9 10 13  5
  4 16  2  5  3 12 14 18 19 15 17  1  7  9 13  6 10 20  8 11
  3 18 11  2 20 13  7  9 16 15  6 10  4 19 12 14  1  5 17  8
 12  4 20  2 16 15  9  7  5 17  1  6 14 11 18  3 19 13  8 10
  3 18 10 11  4  6  2  1 17 15 16 13 12  9 19  5 14 20  7  8
Nb of jobs, Nb of Machines, Time seed, Machine seed, Upper bound, Lower bound
        20        20  806159563 1166962073      1660      1284
Times
 30 80 34 92 29 96 25 49 67 53 20 52 29 51 35 38 18 43 46 98
 73 68  3 98 68  8 15 88 72 20 89 59 68 63 41 30 43 80 64 14
  6 36 88 71 51 63 32 16 63  7 18 90 55 25 72 92 88 69 89 83
 58 35 79 43 86 50 64 88 57 25 73 18  4 69 40 28 37 42 82 83
  2 41 13 75 31 66 72 66 96 45 29 49 96 50 38 80 90 36 50 76
 15 31 89 87 55 49 23 19 38 93 75 45 75 72 65  6 16 24 24 44
  4 22 99 10 85 79  2 54 80  2 58 33 92 93 94 34 36 48 54 12
 19  2  7 60 36 11 97 57 71 60 20 68 53 54 59 16 60 68 65 42
 57 16 92 99 82 91 12 19 59 43 20 84 24 80 60 82 62 32 29 20
 76 78 78 42  3 30  7 82 62 13 84 22 78 80 58 53  6 85 23 99
 83  9 72 88 84 87 78 65 23  7 35 94 33 10  6 85 88 18 94 92
 28 33 93 11 25 67 44 28 69 67  9 82 43 53 48 39 52 75 81 44
 24 44 58 73 30 25 21 14  6 41 19 21 36 72 96 32  5 46 61 82
 91 42 97 65 78 40 93 64  8 56 10 93 28 77 87 26 33 17  2 35
 15 45 96 11 95 39 22 73 79 64 79 88 65 24 38 17  3 73 59 92
  3 28 17 71 91 17 69 69 51 40 93 82 47 42 59  7 43 83 45 83
 67  9 37 62 82 69 34 39 15 84 32 72 68 95 70 80 78 80 30 44
 13 96 26  4 89 98 83  8 70 68 37 20 35 99 27 12 73 92 98 75
 75  1 35 73 35  6 38 34 70 51 16 78 58  9 97 55 38 65  1  8
 27 36 50 21 32  6 34 84 50 39  4 94 49 20 98 64 41 29  4 90
Machines
  2 19  5 16 17 20  1 11  6 15 14  8  9  7  3 12  4 10 13 18
  5  3  4 15  2  1 14 18 19 17  6 11 10 16 20 12  9  7  8 13
  2 17  9 19 14 15  7  1 10 16 20  4 13  6  5 12 11  8  3 18
 20  4  5 10  2  3 19  9  7 17 14 15 13  6  8 12 16 11 18  1
 16 13  2 11  1 20 12 14  3 15 18  7 17  4  8  5  9 10 19  6
  4  8 10  1  6  7 15 17  5  3 20 13 14 19  2 12 18 11  9 16
 18  4 12 10  5 14 17  9  1 19  2 20 11  6  7 16 15 13  8  3
 18 14 17  5 12  8 13  7  9 11  3 19  1 10 16  2  4  6 15 20
  1 12  2 19  3 14 10  8  9 16 17 13 15 11  7 18  4  6  5 20
 10  4  7 13  1 14  3  2 18 17 19 20  5 12 15  8 16  6  9 11
 13 11 17 10 19  8  9  1  7  4 16  2  6  5 18 15 14 20 12  3
  7 19  9  5  8 18  1 15 12 20  4 11 10 17 13  6  2 14  3 16
 18  5 17 13 20  2  3 19 12  4 11  7  6  8 10  1  9 14 16 15
 15 12  2 10 13  8 11 20  3 18 14 17  9 16  6  4 19  1  7  5
  5 11 20 19 17 12  6 16  2  8  3 15 14  4 18  1 13  7 10  9
  3  4  8 19 15  7 13  1 10 14  5 17 11  6 20 12 18 16  9  2
  4  3 16 10 19 12  8 18 17  9 20 14  1  7  5 11 15  2  6 13
  5 11  9  2 13 19 18 16 12 20  4 15 14  8  3 10  6  7  1 17
 14 16  6 15  4 19 18 11  3 20  7 13 12 17  8  1  5  2 10  9
  4 14 19  9 12 10 18 13 17  1  3 15 20  8 11  2 16  5  7  6
Nb of jobs, Nb of Machines, Time seed, Machine seed, Upper bound, Lower bound
        20        20 1902815253 1879990068      1598      1256
Times
 14 62 32 81 65 53 31 98 34 27 60 43 30 24 61 40  7 15 50 10
 12 42 69 12 84 24 87 69 45 37 38 72 54 66 45  4 61 20 49 17
 60 45 34 74 65 75 92 69 40 26 69 30 18 88 49 68 25  1 95 25
 77 61 42 65 99 81 84 33  8 21 26 58 91  7 95 91 91 14 46 49
 62 88  2 12 68 99 46 35 87 53 60 54 99 59 10 34 67 31 52 53
 21 92 33  8  9 51 44  1 69 83 17 86 51 95 40 32 84 54  3 31
 46 87 45 62 10 19  3 69 51 56 20 51 41 12  6 45 17  2 93 39
 10 82 44 22  9 55 29  3  3 77 78 43  9 84  1 11 59 97 23 83
  3 89 34  4 94 10 90 16 18 55 69 39 99 77 65 55 27 84 94  2
 85 98  6 74 24 54 85  7 60 49 92 59 26 97 87 28 81 46  4 82
 49 99 92 55 38 23 97 42 94 95 93 31 91  3 30 28 56 21 51 22
 51 65 71 81 56 45 41 26 52 88 97  3 32 16  1 13  8 50 66  5
 93 78 90 25 83 40 83 67 59 90 91 50 22  9 12 28 28 40 43 29
 65 30 14 33 50 91 19 50 86 83 13 49 30 43 46 67  6 77 87 64
 92 96 76 42 39 17 46 61 17 29 69 58 69 98 60 97 76 41 55 32
 37 38 77  4 72 31 32 98 44 65 16 84 60 88 20 60 92 91 72 58
 15 37 51  9 15 14 73 93 79 63 21 68  9 51 25 57 41 51 80 20
 50 50 19 81  1  6 15 30 19 36 64 76 40 32 77 62 52  7 97 40
 29 35  7 59  1 65 92 39 56 93 29 54 41 54  7 85 74 79 72 79
 31  9 76 54 44 39 48 17  4 13 87 24 68 84 82  1  4 60 56 58
Machines
 10  7  3 15 19 14  1  2 11 20 18 17 12 16  8  9 13  5  6  4
 11  6 18 20  5 12 10 13  1  8  9 16  2  7 14 15  3  4 17 19
  7  9 20 11 15  6  5 18  3 12 16  1  8  4  2 14 10 13 17 19
 12  5 18 16  9 14 10  7 17 20  1  8  2 11 19  4  3  6 13 15
 12 20 17  1  9  6  3 11 19 14 10  4 13 16  8  5  2 18  7 15
 12 10 17  8  7 16  2 20 11 19  9 18  3 15  5 13 14  4  1  6
  4 13  3  8 17 15 16 10 20 19  2  6  1 11 12  9 14  7 18  5
 19 13  1 10  4  8 17  9  5 18 12 11  6  3 15 16  7 20  2 14
  1 18  9 13  7 16 14  2 10  6 12  3 19  4  8  5 17 11 20 15
 12 19  6  7  1 11  3  2 16 15  4 13  5 20 17  9 14  8 18 10
 14  8  7 18 16 11  3 20 13 12  2 17  9 15  4  1  6  5 10 19
  7 20 13 14  6 11 10 19 15 17  8 12  1  3  4 16  5 18  2  9
  7 10 11 15 13  6 12  8  3 18 20  5 16  1  2 14 17  4 19  9
 12 20  6  8 11 10 16  5  3 15  7 13  1 14 17 18  2 19  4  9
 10 20  6 11  5 12  1  7  3  4  8 14  2 19  9 16 17 15 18 13
  8  5  7  3  4 19  1  6  2  9 14 18 12 15 20 17 13 16 11 10
 16 13  6  3  9  8 15 10  5  4 14  7 17 18 20  2 12 11 19  1
 20 14 10  6  7  5  9  4 16 11  3 13  1  2 19 17 15 12  8 18
  8 18  6 13  5 15 14  3 19 10  2 12  1  7 17 11 16  9 20  4
  9 15 12 19 16 17 20 14 18  2 10  6  7  1  4  5 11  3  8 13
Nb of jobs, Nb of Machines, Time seed, Machine seed, Upper bound, Lower bound
        20        20 1503184031 1850351876      1657      1245
Times
 47 61  7 13 52 33 83 60 57  7 74 93 59 46  7 84 56 58 45  4
 97 15 18 73 37 94 20 69 13 26 48 71 96  5 42 15 64 36  6 74
 87 89 28 81 47 53 67 78 14 92 94 26 68 36 79 71 94 28 25  2
 99 65  9 52 10 55 20 67 69 16 10 54 47  4 66 33  9 53 30 29
 33 64 17 81 42 60 14 95 36 95 37 85 48 74 76 68 77 14 91 69
 86 16 34 83 79 89 22 74 58 71 22 36 53 80 53  1 57 68 26 26
  4 83 26 54 16 88 16 61 41 54 98  3 84 11 55 18 67 62 17 31
 16 99 46 40 54 27 71 95  9 46 57 86  7 16 70 15 71 41 83 14
 30 24 95 41 53 84 55 54 42 75 55 57 62 23 28  3 83 88 11 68
 78 63 21 64 91 75 53 35 77 29 68 92 89 49 47 33  4 58 18 33
 25 86 55 68 56 43 23 15 88 28 41 87 75 77 49 52 80 25 94 55
 40 29 27 70 76 19 67  9 10  8 83 49 70 62 70 38 68 46 77  9
 72 82 78 12 98 98 46 79 88 11 36 67 97 22 53 21 22 17 43 60
 60 77 32 51 31 65 18  3 31 12 35 54 44 10 43 77 40 98 69 33
 72 42 20  2 50 67 81 95 39 45 82 50 89 77 63 44 42 40 86 84
 62  6 46 40 75 89 11 13 89 71 69 86 60 92 56 88 80 18 75 66
 51 16 60 38 43 94  3 53 80 96 70 66 83 82 83 70 22 94 46 57
  6 28 71  9 27 88 90 72 43 16 36 44 41 37 80 84 86 91 24  3
 43 27 46 67 89 10 63 33 14 95 61 66 68 46 27  5 17 64 10 74
 83 35 39 97 99 77 98 88 51 31 88 24 34 44 29 37 23 15 50 56
Machines
 11  3 10  4  8  5 19 13  7 15 16  1  6 18  9 14 20 12 17  2
  1 15  3 12  9  7  8 16 13 19  2 17 14 20 11  6  5  4 18 10
  9  8  2 13  5 19 15  3 16 11 12 17  1 18 10  6 14 20  7  4
 11 16  1  7 19 17 10  3 20  6 12 14  9  8  5 18 13  2  4 15
 11 19 17  5  6 10  9  4 13 15 18  2  1 12  3 20 16 14  8  7
  4 13 10 12 20 15  3  2 11 14  6  9  8 18 17 19  1 16  5  7
  3  8  7 20  6 10 12 17 11  9  2 19  5  1 14  4 16 15 13 18
 13  8 19 20  6 11  9 15 12 18  1 10 16  7  2  5  4  3 17 14
  9 13  8  5  6 11  4 10  1  3 14 12  2 20 15 17 18 16 19  7
 18 15  6 11 14 12 10  5  3  8  1  4  7  9 19  2 16 17 20 13
  3 18 10 15  2  8 16  4  5  7  6  1 19 12 11 13 17  9 20 14
 20 11 10  5  2  8 19  3 16 12  4  9 14 17  7 13 18  6 15  1
  1 17  2 13 18 14  9 20  5  4  8 10 19 16 11  7  3 12  6 15
  8 13 14  9 18 10 17 11  7  4 15  5 12 20  6  2 19 16  1  3
  6 11  2  5  3  7 15  8 12 19 10 14 16  4  1 20 18 17 13  9
  5 14 19  4 20 11 15  3 13  2  8 12  6  9 16  7 10  1 17 18
  9 16 17 20  6  7 13  3 11 15  1  4 10 14  2  5 12 18 19  8
  6 20 12 13  7  4  5  9  2 18 19  3 14 15 16 17 11  8  1 10
  8  2 11 19 15 17  6 14  5 20  3  7  1 13 12 16  4 18  9 10
  1 10 17  5  3  8 16 14  2  7 20  4 11  9 12  6 19 13 18 15
Nb of jobs, Nb of Machines, Time seed, Machine seed, Upper bound, Lower bound
        20        20 1032645967   99711329      1704      1403
Times
 86 43 61 99  7 70 21  2 88 38 65 81 38 51 81 37 72 94 44 99
 80 66 90 83 89  7 55 17 13 45 28 73 44 65 50 84 70 71 32 91
 90 43 37 71 64 88 27 30 34 99 10 44 99 94 96 98 44  7 33 59
 34 52  5  4 84 54  3 97 39  9  9 91 60  4 63  3 35 79 66 97
 52 51 72 24 96 54 51 61 92 81 74 49 24 59  4 21 78  2  3 49
 42 47 10 27 38 92 88 16  3 56 80 10 26 78 69 91 82 77 73 96
 19 38 83 50 31 87 67 99 69 77  4 31 96 77 80 68 74 86 30 54
 25 47 10 16 83 62  3 38 87 19 98  2 58 30 22 55 80 69 77 40
 17 98 25 41 62 28 52  5 25 37 93 63 23 58 92 70 90 29 26 69
 41 65 34  4 73 79 58 14 97 71 97 95 58 12 17 66 78 68 69 53
 27 83 20 12 86 34 36 28 63 37 23 50 90  5 17 80 35  4 41 81
 85 92 90 95 19 59 94 75 75 47  9  6 43 30 88 19 10 76 58 29
 23 87 50 76 26 28 36 35  4 32 22 74 52 13 14 61 47 87 73 64
 80 43 45 92 68 66 60 37 60 51 41 61 98 59 95 38 67 12 95 22
 57 96 11 25 69 59 45 52 85 26 91 57 30 32 58 40 11 19 19 82
 81 83 77 45 63 95 25 48 27 56 54 82 32 99 41  1  2 61 23 26
 47  9 90 28 68 23 66 46 75 96 68 60 46 35  9 89 96 42  2 86
 90 52 10 25 59 55 30 33 18 80 73 41  9 64 79 31 79 44 14 73
 59 57 67 47 13 35 72 74 56 85 52 25 92 92 81 76 91 93 36 88
 28 89  3 75 31 87 66 67 34 19 30 91 53 81 13 15 59 17 85 11
Machines
  8 14 18  7  9 12  5  4 13 19 10  3  1  2 11 17 16 15  6 20
  8 18 17 11  1 16 13  2  3 10 19  6  4  7 20 15  5 12  9 14
 12 18 20  1  3  5  9 15 11  4  6 13 19 16  2 17  7  8 10 14
  3  8 18 13  2 17 14  7 20  4 19 12  6  1  5 15  9 11 16 10
  4  6 13  1 11 18 17  3  8  9 10 19 20  5 14 12  2  7 16 15
 10 14  7  1  8 19 13 18 20 11  4  5 17  2 16  9  3 12 15  6
  8  4  6 18 15 20  9 10 14 12  2 13 17  1  3 19 16  5 11  7
 16 17 13  6  5 10 19  4  9 20 18  7 14 12  1  8 15 11  2  3
  3  6  7 20  5 19  2  1  9 10  8 13 14 15 18 16 17  4 11 12
 20  1 18 15  8 12  9  7 13  5 11  3 17 14  4 10  2 16 19  6
 11  5 15 10 20  7 19  1 14 13 17  6  8  9 18  4  2  3 16 12
  5 19 13 16  4  9 20 10  6  7 17 15 11  1  3  2 18 14 12  8
  5  6  7  8 12 11  1 18  3 10 15 14  2 17  9 20 16 13  4 19
  6  1 18 15  9 13  3 10 19  7 20  4 14  8  5 16 12  2 11 17
 11  2 16  6  9  5 10 14 15  3 18  7  4 17 20 12  8 19  1 13
  2  6  3 17 12 18 15  9 10 19  5 13 16 20  8  1 14  7 11  4
  2 19  3 15  6  9 11  7 20  5 14 10 17  8 12 13 16  1  4 18
 12  4 15  8  2 14 19 10 20 13  9 16  5  7 17 18  3 11  1  6
 11  3 18  8  9 19 14  7  6 17  1 16  2  4 13 12 10 15 20  5
  9 17  1  3 12 11 20 18  8 15  4  5 14 16  7  6  2 10 13 19
Nb of jobs, Nb of Machines, Time seed, Machine seed, Upper bound, Lower bound
        20        20  229894219 1158117804      1626      1387
Times
 24  8 42 87 95 14 30 89 69 32 59 20 26 35 83 25 48 51 58 99
  5 34 32 29 44 79 73 13 25  8 37  6  1 31 97  7 47 91 74 38
 67 68 44 31 90 29 21 37 82 27 33  1 73 35 83 79 79 92 44 78
 13 85 76 84 77 20 63  1  5  5 50 11  8 14 34 20 58 32 56 74
 71 12 79 78 26 38 72 83 51  9 45 13 31 91 40  5 91 24 96 72
 83 98 83 22  8 28 93  5 82 65 77 56 66 61 82  9 82 35 83 51
 38 78 91 21 88 93 15 10 68 75 53 35 11 68 98 56 37 57 15 83
  3 98 19 67 33 78 59  2 32 78 97 77 72 34 45 26 79 28 88 19
 46 28 99 95 17 84 68 26 32 85 98 59 67 44 80 70 95 70  9 49
 27 17  6 62 90 17 58 94 11 65 96 76 58 60 51 51 98 26 92 66
 92  9 71 66 57 56  8 80 11 78 50 37 92  5 13 63 21  6  2 27
 70 55 13 50 23 75 24 69 72 53 94 25 21 57 16 17 70 34 42  6
 94 80 74 71  8 51 87 86 37 93 82  1 76 49 35 44 50 75 63  4
 19 40 30 92 10 60 32 71 73 61 31 94 61 85 91 98 35 55 84 93
 68 13 30 83 46  8 41 83 33 19 75 37 17 29  5 62 96  7 73 39
 49 19 10 67  6 42 87 83  7 51 55 79 24  2 88 80 37 58 20 45
 89 33 27 20  2 26 88 24 62 68 59 53  7 85 66 14 22 15  8 58
 88 88 91 72  9 41 76 24 77 60 93 39 93 71 13 73 44 15 19 95
 93 34 36 82 28 52 22 33 77 27 62 59 52  1 39 85 62 34 77 74
 15 38 83 32 12 41 81 79 90 12 18 37  1 91 73  5 82 64 37 91
Machines
 18  8 10 13  5  6 15  9  1  3 19  4 11 12 17 14 20 16  2  7
 19 11  7  4  5 17  2 15 16 14 12 20 18  9  1 10  3  6 13  8
 14 17  9  8  5  4 16 20 19 18  6  2 11 15 13 12  7 10  3  1
 14 19  5  7  6 15 10 20  2  4 11  8 13  3 16 12  9 18 17  1
 18 11  9 13  4 15 17 16  3  1  8  6 14 20 12 19  7  5 10  2
  6  1 20 18  9  8 13  7  2  4 14 17 16  3 15 11 10 12 19  5
 18 15  7  9 19  3 17 13  6  1  5 16  8 11  4 20  2 12 10 14
 12  2 16 17  3 14 10 15  1  7 19 11  8  6  5 18  4 20 13  9
 18 11  8  3 17 14 12  1  9  5 20  4  2 13  6 19 10 15  7 16
 19 16 15 13 10 20 11 17  8 18  7 12  1  3  5  9 14  6  4  2
  2  1 10  7 20 18 12 19 16 17 15  9  8 14  4 11 13  5  6  3
 16  3 11 20 10  4 18 17 14 12  5  7  2  8 15 13  6 19  1  9
  7  2 20 15 18 12 11  4 14  3 13 16  5 17  9 19  6  1 10  8
  3 11  2 20  6 13  9 15 18 14 12  5 17 19 16  1  7  8 10  4
 15  1  9  4 10 11  3 18  5  7 20  2 17  6 13 14 16  8 19 12
  9 13 14 11  8  1  5 17  6 16 19  4 10  3 12 20 15  7  2 18
  9 13 20 12 11  5  3  8 10  7  1 16 14  2 17 15  6  4 18 19
 10  7 17  5  4  3 15  9 13  8 18 16 20 19  2  1  6 11 14 12
 10 19 13 11 15 17  2 18  5  8  1  9  3 16 20  7  6  4 12 14
  7  3 18 10 20 12 15  8  5  4  9 13 19 16 17  1  6  2 11 14
Nb of jobs, Nb of Machines, Time seed, Machine seed, Upper bound, Lower bound
        20        20  823349822  108033225      1629      1352
Times
 84 45 53 48  9  9 39 79 83 50 24 49 81  5 70 89 91 25 80 36
 75 48  6 32 68 23 44 21 42 13 74 31 62 91 65 66 26 96 97 51
 49 26 35 64 55 78 72 83 59 16 92 68 64  4 76 82 70 75 65 31
 55 58 37 32 31 65 65 85 50 94 37 20 94 20 31 30 49  8 22 47
 81 68  2 69 38  7 81 79 76 94 65 11 98 38 95 93  9 21 17 79
 64  7 94 29 77 75 50 78 57 29 66 93 74 73 80  8 26 87 69 85
 49 59 91 59 25 44 50 41 33 89 79  3 54 82 63 31 15  2 67 71
  4 20 23 33 65 44 57 20 93 23 18  8 72 54 18 93 43 18 56 21
 58 25 34 89 54 89 12 51 74 78  4 72 81 92 69 35 25 35 10 33
 33 84 75 66 49 77 87 44 37 67 33 75 65 44 66 45 93 98 22 67
 17 26 54 25 92 34 47 80 24 92 75 68 84 72 84 94 69 96 34 29
 66 79 74 67 72 22 50 30 47 75 43 44 71 61 54 99 11 97 75 81
 35 75 99 72 92 90 26 91 70 82 13 45 82 58 38 19 66 23 49 19
 82 74 40 33  9 33 26 44 18 73 41 96 39 91 89 11  1  2 69 10
 25 32 41 14 67 25 94 89 21 98 92 72 57  4  1  2 84 91 42 85
 29 98 41 87 52  9 22  2 79 73 16 22 97 13 19 13 50 43 91 34
 91 41 47 61 66 31 92 42 19 98 36 29  8 25  5 90 62 63 17 23
 69 78 61 52 40 71 40 61 93 37 32 48  7 37 69  4 79 81 10 75
 90 16 68 32 96  7 42 52 38 68 72 78 10 61 40 31 81 69 84 27
 91 17 75  7 44 10 32 78  9 69 45 87 90 50 42  2 21 62 93 88
Machines
 11 10 17 19 18  6 15  3 14 20 13  4  9  5  2 16  1  7 12  8
  5 20  6  7  3  8 17 13 10 12  9 14 15  4  2 16 19 18  1 11
 11  4 15  1 17  2  3  6  8 16 18 14 20  5 12 13 10 19  9  7
  2  9 18 12  1 11 13  6 14  5  7  4 16  8 17 15 10  3 20 19
 14 17 19 11 16  5 15  6 20  3 18  1  7  8  4  2 10 13 12  9
  6  8 16 20 18  5 13  3  4 19  9 14  1 10 15 11 12  7  2 17
 11  4 13  9 10 17 20  7 14 12 18  1 15 19  2  5 16  6  8  3
  5 15 19  4 17  8 10 11 18 12 16  1  6  7 20 14 13  2  9  3
  9  5  8  6 10 20  4  1 14 15 12 18 17 11  2  3 13  7 19 16
 12 20 13  5 19  7  9 14 16  3  1  2  4 18 17 11  6 10  8 15
  1 18  2 19 14 13  7  8  3  6 16 11 12 10 20 17  5 15  4  9
  1 11  6  9  3  2 16  8 19  4 13 14 10 18 20 12 17  7 15  5
 17 14  5 20 19  7 11  6 10 18  2 13 15  9 16 12  4  1  8  3
 18 14  5 13  8  1 12  4  3  9 17 19  2  7 15 16 11 20  6 10
 13 11 17  6 10  1  7 19  2  3 16 12 15  4  9  8 14 20 18  5
  8  2  5 14 17 13 10  4 15 19  1 11  6 18  9  3 20  7 16 12
 15  9 19 18 16 20  4 13 17  1  3  2 14  6 11 12 10  8  7  5
  9 10 16  8  6  2  1 19 15  3  7 13 18  5 11 20 12 14 17  4
 17  5 16 15  9  8 19 20 13  6  7 10  2  3 14  4  1 12 18 11
  5  9  3 15 16  7 14 18 13 10  8  6  4  2  1 12 20 11 19 17
Nb of jobs, Nb of Machines, Time seed, Machine seed, Upper bound, Lower bound
        20        20 1297900341  489486403      1614      1277
Times
 84  9 34 62 11 60 43 52 77 37 15 43  8  5 36 56 46 51 86 86
 61 56 60 78 73 12  8 16 12 63 31 62 97 53  1  3 99 65 63 32
 86 53 59 12 34 27  2 86 85 21 58 70 55 77 15 20 32 42 17 38
  3 13 67 13 63 88 68 21 21 86  7 91  8 56 92 58 94 54 57 87
 29 74 89 18 38 75 18 15 95 11 24  4 12 17 34 35 62 90 48 21
 11 14 90 74 67 91 70  8  7 49 13 78 75 80 31 22 99 66 80 66
 97 63 11 71  1 63 70 33 74 76 86 87  9 18 51 27 48 31 45 76
 19 64 94  4 81  5 72 30  2 16 38 93 15 17 61 71 18 22 17 20
 61 66 62 70 59 80 82  2 97 76 72 90 74 95 41  9 46 20 78 32
 61 90 37 86 15 19 62 82 86 59 92 89 82 48 13 29 28 45 84 62
  7 86 79 67 85 68 94 61 47 49 50 55  3 18 79 32 43 97 53 44
 20 50 72 90 25 24 43  4 26 62 42 77  9 61 19 69  9 60  5 54
 45 73 50 58 94 90 97 42 36 72 84 33 44 59 47 40 81 85 26 28
 67 46  9 40 81 97  7  2 69  9 17 81 81 46 26 30 88 73 44 99
 16 62  3 30 16 40 62 96 75 69 86 90 93 15 30 46 50 29  9 97
  5 73 54 81 26 36 35 56 62 31  2 23 60 12 88 38 95 65 86 64
  3 99 81 93 82 17  1  1 32 36 30 62 90 20 98  3 66 75 79 67
 52 76 79 63 52 23 35 22 58 13 26 68 84 16 28 28 54 76 86 47
 74 34 68 37 26 48 29 24 60 98 54 97 19 99 62 46 25 53 11  4
 15 92 41 63 87 67 77 89 65 17 24 67 10 87 91 58 52 26 33  3
Machines
 19 16  7  9 15 13 20 12  8  5 10 17 11 14  4  6  3  1  2 18
 19 14  9  4  2 20 15 17  1  3 10 11 12  5  6 13  7  8 16 18
 11  8  5 18 15  1  9  2 17  6  4 14  3 16  7 19 20 13 12 10
  3 20  6 17 12 16 14  5  1  9 18  7 19 11 10  4  2  8 13 15
 13 16  3  4 12  8 11 18 10 17  1 14  5 15  2 20  9  7  6 19
  7 13 14  9 15  1  6 12  8  3 20  4  2 19  5 16 11 17 10 18
 12 16 18  8 19 10 13  5 17  2  3 11  9  6  1  4 15  7 14 20
 19 18  1  8  5 13  2 11  3 16 14 15 20  6  7  4 10  9 12 17
 16 12 13  8  2  1 15 10 19  9 14  6 17  4 20  5 11  7 18  3
  8 19  5 20 13 10 14  6  3 16 11 15  1 17  2  7  9 18 12  4
 18 14 19 15 20  2  7 12 13  5 16  1 17  4 11  9  3 10  8  6
 11 15 13 10  3  1 20  6  5 14  8 12  4 16 19 17  2  7 18  9
  8 20  2 11 12 15  9 10  5  6 13 16 18 14  4  7  3 19  1 17
 18 12 14  2  3  5  8  1 11  9  4 20 15  7 10  6 19 17 13 16
 12  4  6 20 11  2 18  8  7 14  3 19  1 16 13  9 15 17 10  5
 13  9 17  1 19 14  8 20  5 10 18  6 12 15 11  4  7 16  2  3
 10  6 20  8 12 13 17 15 14  1  9  5 11 19  2  7  4 18 16  3
 20  5  7  2 15  3  1 19  8 11  4 13 16 10 14  6  9 18 17 12
 20  4 16  5  8 13 14 17 19 15 18  6  9  1  3 12  7 11 10  2
 12 18 14  5  4 16 19 13  1 11  6 20 10  3  8 15  7  9  2 17


